timeStamp,elapsed,label,responseCode,responseMessage,threadName,dataType,success,failureMessage,bytes,sentBytes,grpThreads,allThreads,URL,Latency,IdleTime,Connect
1630490974265,1160,HTTP Request,200,OK,Thread Group 1-1,text,true,,19138,682,1,1,https://sso.shoplineapp.com/users/sign_in,643,0,549
1630490974265,646,HTTP Request-0,302,Found,Thread Group 1-1,text,true,,1023,150,1,1,https://admin.shoplineapp.com/admin/testuser0002/products,643,0,549
1630490974916,321,HTTP Request-1,302,Found,Thread Group 1-1,text,true,,811,322,1,1,https://sso.shoplineapp.com/oauth/authorize?client_id=18b79581424ed9813ee44338186a1fc0079e1b1313249281defb722ffdbee898&merchant_id=5a6d4b4b72fdc0df060078f3&mode=&redirect_uri=urn%3Aietf%3Awg%3Aoauth%3A2.0%3Aoob&response_type=code,318,0,233
1630490975241,184,HTTP Request-2,200,OK,Thread Group 1-1,text,true,,17304,210,1,1,https://sso.shoplineapp.com/users/sign_in,120,0,0
